(footprint "M2_HOLE_thin_pad" (version 20211014) (generator pcbnew)
  (layer "F.Cu")
  (tedit 5F7666AF)
  (descr "Mounting Hole 2.2mm, no annular, M2")
  (tags "mounting hole 2.2mm no annular m2")
  (attr exclude_from_pos_files exclude_from_bom)
  (fp_text reference "Ref**" (at 0 -3.2) (layer "Dwgs.User")
    (effects (font (size 1 1) (thickness 0.15)))
    (tstamp bb8e4c88-051a-4db0-a3b4-2dd2c5d1f6b8)
  )
  (fp_text value "Val**" (at 0 3.2) (layer "F.Fab")
    (effects (font (size 1 1) (thickness 0.15)))
    (tstamp db3de37c-1e9b-41cc-85f3-1f0b59b54c87)
  )
  (fp_text user "${REFERENCE}" (at 0.3 0) (layer "F.Fab")
    (effects (font (size 1 1) (thickness 0.15)))
    (tstamp 9b5febef-22cf-41f5-aaaa-bb8e5ff4a5bb)
  )
  (fp_circle (center 0 0) (end 2.45 0) (layer "F.CrtYd") (width 0.05) (fill none) (tstamp ce643f86-356b-4273-814f-20fbcca1ec4d))
  (pad "1" thru_hole circle (at 0 0) (size 2.8 2.8) (drill 2.3) (layers *.Cu *.Mask) (tstamp 644ea1f5-c4cf-4f58-a1c8-28c6fbb0821e))
)
