(footprint "PJ-320A-circular-reversible-jumpers" (version 20211014) (generator pcbnew)
  (layer "F.Cu")
  (tedit 60C6AD1B)
  (tags "trrs")
  (attr through_hole)
  (fp_text reference "TRRS" (at 0 -6.6) (layer "Dwgs.User") hide
    (effects (font (size 1 1) (thickness 0.15)))
    (tstamp 49489633-742d-4dee-ae91-24b83e9f4279)
  )
  (fp_text value "PJ-320A-circular" (at 0 -9.3) (layer "F.Fab") hide
    (effects (font (size 1 1) (thickness 0.15)))
    (tstamp 4f796958-3274-4437-9bcf-b7b879f32a73)
  )
  (fp_text user "TX" (at 0 -3 180) (layer "B.SilkS")
    (effects (font (size 1 1) (thickness 0.15)) (justify mirror))
    (tstamp 01543480-ab43-47e9-b6a9-37487b737d4e)
  )
  (fp_text user "GND" (at -2.3 9) (layer "B.SilkS")
    (effects (font (size 1 1) (thickness 0.15)) (justify mirror))
    (tstamp 319e5294-b934-4881-a19d-00131949e042)
  )
  (fp_text user "RX" (at 0 0 180) (layer "B.SilkS")
    (effects (font (size 1 1) (thickness 0.15)) (justify mirror))
    (tstamp 40e11790-5c47-4ad8-a00b-8838efcc52f6)
  )
  (fp_text user "VCC" (at 2.1 9) (layer "B.SilkS")
    (effects (font (size 1 1) (thickness 0.15)) (justify mirror))
    (tstamp 605b5087-682a-4c15-af6c-1ece7fde794e)
  )
  (fp_text user "GND" (at 2.1 9) (layer "F.SilkS")
    (effects (font (size 1 1) (thickness 0.15)))
    (tstamp 0e75d4f1-567c-4b75-9364-ee57b2d8a582)
  )
  (fp_text user "RX" (at 0 -3) (layer "F.SilkS")
    (effects (font (size 1 1) (thickness 0.15)))
    (tstamp 2a505014-0d04-4d12-b305-80bae74762a9)
  )
  (fp_text user "TX" (at 0 0) (layer "F.SilkS")
    (effects (font (size 1 1) (thickness 0.15)))
    (tstamp 31a599ab-2b4c-4cbb-baa6-231084a5aded)
  )
  (fp_text user "VCC" (at -2.3 9) (layer "F.SilkS")
    (effects (font (size 1 1) (thickness 0.15)))
    (tstamp 75edec8e-ffda-4d04-8e4a-b786f9b63a64)
  )
  (fp_line (start 3.3 -6.15) (end 3.3 6.85) (layer "B.Fab") (width 0.12) (tstamp 0d6eea8e-dbcb-4376-8674-92c712429a36))
  (fp_line (start 2.5 -8.15) (end 2.5 -6.15) (layer "B.Fab") (width 0.12) (tstamp 2a11f0af-f16a-43f9-81ed-0367f9813b92))
  (fp_line (start -2.5 -8.15) (end 2.5 -8.15) (layer "B.Fab") (width 0.12) (tstamp 2d08a06e-80a1-4e6c-b662-35309dd04399))
  (fp_line (start -2.5 -8.15) (end -2.5 -6.15) (layer "B.Fab") (width 0.12) (tstamp 6b4faffa-4a24-4c2a-95e4-4035085bf14b))
  (fp_line (start -2.5 -6.15) (end -3.3 -6.15) (layer "B.Fab") (width 0.12) (tstamp 932feb87-e9b8-4394-8df9-7437cb6a3b19))
  (fp_line (start -3.3 6.85) (end 3.3 6.85) (layer "B.Fab") (width 0.12) (tstamp b01a3633-4ddf-446b-9608-71f7eac964db))
  (fp_line (start 2.5 -6.15) (end 3.3 -6.15) (layer "B.Fab") (width 0.12) (tstamp deee136a-fa12-46f8-be9e-e8762e6cd1c6))
  (fp_line (start -3.3 -6.15) (end -3.3 6.85) (layer "B.Fab") (width 0.12) (tstamp f990ce41-4d3b-495a-8b4b-648a9ff2c259))
  (fp_line (start -2.5 -6.15) (end -3.3 -6.15) (layer "F.Fab") (width 0.12) (tstamp 17106553-8d64-473d-be9e-09fa81e36851))
  (fp_line (start 2.5 -8.15) (end 2.5 -6.15) (layer "F.Fab") (width 0.12) (tstamp 2fd72994-67d3-47d6-9b17-619f6d3d78ab))
  (fp_line (start -2.5 -8.15) (end -2.5 -6.15) (layer "F.Fab") (width 0.12) (tstamp 52a2ad2a-4fa9-4392-8457-cc03373d00ed))
  (fp_line (start -3.3 -6.15) (end -3.3 6.85) (layer "F.Fab") (width 0.12) (tstamp 8211a62e-1dc7-48b1-8938-ff57f737c0b6))
  (fp_line (start 3.3 6.85) (end -3.3 6.85) (layer "F.Fab") (width 0.12) (tstamp a272b2cf-a0c6-4f89-aa96-6a0f06d5165b))
  (fp_line (start 3.3 -6.15) (end 3.3 6.85) (layer "F.Fab") (width 0.12) (tstamp dbe30b59-4b9d-4d2d-939a-28d49eda4da9))
  (fp_line (start 2.5 -6.15) (end 3.3 -6.15) (layer "F.Fab") (width 0.12) (tstamp f7dbd054-bf88-4c95-9531-630658bebf15))
  (fp_line (start 2.5 -8.15) (end -2.5 -8.15) (layer "F.Fab") (width 0.12) (tstamp fe3aae72-aef2-48c8-aaa0-40af950280d3))
  (pad "" smd rect (at -2.2 6.2 180) (size 0.5 0.6) (layers "F.Cu") (tstamp 08445d1c-57da-4492-add8-e032c43fe432))
  (pad "" thru_hole circle (at -2.2 5 270) (size 2 2) (drill 1.2) (layers *.Cu *.Mask) (tstamp 126f1e7a-7934-41ae-94a9-c8a3f452dd0d))
  (pad "" smd rect (at 2.2 6.75 180) (size 1.6 0.6) (layers "F.Cu" "F.Paste" "F.Mask") (tstamp 2d402dac-c13c-4e85-aa06-351be96449fd))
  (pad "" smd rect (at -2.2 6.2 180) (size 0.5 0.6) (layers "B.Cu") (tstamp 3bdc79b9-b778-4310-af82-323b17238eaf))
  (pad "" smd rect (at 2.2 6.2 180) (size 0.5 0.6) (layers "B.Cu") (tstamp 539fc5dd-aa67-4d5a-a616-4c2ae8ba1c80))
  (pad "" thru_hole circle (at 2.2 5 270) (size 2 2) (drill 1.2) (layers *.Cu *.Mask) (tstamp 8e177933-db45-4e53-9c86-7e527c328b92))
  (pad "" smd rect (at -2.2 6.75 180) (size 1.6 0.6) (layers "B.Cu" "B.Paste" "B.Mask") (tstamp 9ff1afef-283e-4c00-b4b3-c80e32730f9e))
  (pad "" thru_hole circle (at 2.2 4 270) (size 2 2) (drill 1.2) (layers *.Cu *.Mask) (tstamp a90573a8-6f46-41b7-a483-94d11f626cf3))
  (pad "" smd rect (at 2.2 6.2 180) (size 0.5 0.6) (layers "F.Cu") (tstamp aa84b1c5-91ca-45f4-bd15-7055945da7e9))
  (pad "" smd rect (at -2.2 6.75 180) (size 1.6 0.6) (layers "F.Cu" "F.Paste" "F.Mask") (tstamp c46f937f-f3ac-4a66-8204-1fda5c16c691))
  (pad "" thru_hole circle (at -2.2 4 270) (size 2 2) (drill 1.2) (layers *.Cu *.Mask) (tstamp ce71c846-f189-4ec5-a947-d1d9b4489b4f))
  (pad "" np_thru_hole circle (at 0 2.55) (size 0.9 0.9) (drill 0.9) (layers F&B.Cu) (tstamp d6ff76cd-03d4-4bf3-982e-c5f9ca5e3cc8))
  (pad "" smd rect (at 2.2 6.75 180) (size 1.6 0.6) (layers "B.Cu" "B.Paste" "B.Mask") (tstamp e8fb1655-4541-4b69-a70b-702a4e411d95))
  (pad "" np_thru_hole circle (at 0 -4.45 270) (size 0.9 0.9) (drill 0.9) (layers F&B.Cu) (tstamp eb1c45a8-aba1-4baf-86e0-181f17692033))
  (pad "1" smd rect (at -2.2 7.6 180) (size 1.6 0.6) (layers "B.Cu" "B.Paste" "B.Mask") (tstamp 98b8528b-e942-4c8c-99e1-4411c77f1e35))
  (pad "1" smd rect (at 2.2 7.6 180) (size 1.6 0.6) (layers "F.Cu" "F.Paste" "F.Mask") (tstamp d2362251-4ae0-4649-8622-328bcc209e0c))
  (pad "2" smd rect (at -2.2 7.6 180) (size 1.6 0.6) (layers "F.Cu" "F.Paste" "F.Mask") (tstamp 17832102-27f9-4d7c-8fff-78f8c7f2e973))
  (pad "2" smd rect (at 2.2 7.6 180) (size 1.6 0.6) (layers "B.Cu" "B.Paste" "B.Mask") (tstamp 3c712796-ebc5-44ce-94a1-aa87c758c73b))
  (pad "3" smd rect (at 0 -1.5 55) (size 0.3 4) (layers "B.Cu") (tstamp 2681d1f5-e003-43eb-a917-4b22939052b2))
  (pad "3" thru_hole circle (at 2.2 0 270) (size 2 2) (drill 1.2) (layers *.Cu *.Mask) (tstamp b4485481-96e8-4e52-8ffa-9d39690b3210))
  (pad "3" thru_hole circle (at -2.2 -3 270) (size 2 2) (drill 1.2) (layers *.Cu *.Mask) (tstamp ba7a0ee1-0e1b-4e77-9ef0-a9ec85c3dc75))
  (pad "4" thru_hole circle (at -2.2 0 270) (size 2 2) (drill 1.2) (layers *.Cu *.Mask) (tstamp 52456f68-0c52-4fd8-9398-53308607104a))
  (pad "4" thru_hole circle (at 2.2 -3 270) (size 2 2) (drill 1.2) (layers *.Cu *.Mask) (tstamp e4daf552-ab3c-424c-96dc-97c602593ad0))
  (pad "4" smd rect (at 0 -1.5 305) (size 0.3 4) (layers "F.Cu") (tstamp f7baadcd-01d6-4896-88b4-9ab3739f60c3))
)
