(footprint "RGB-SK6812-MINI-E-flippable-backlight" (version 20211014) (generator pcbnew)
  (layer "F.Cu")
  (tedit 5ECEB660)
  (attr through_hole)
  (fp_text reference "REF**" (at 0 2.1 unlocked) (layer "Dwgs.User")
    (effects (font (size 0.7 0.7) (thickness 0.15)))
    (tstamp 4909273f-dd6e-4103-920d-3e4d369b916e)
  )
  (fp_text value "RGB-SK6812-MINI-E-flippable-backlight" (at 0 -3.1 unlocked) (layer "Dwgs.User") hide
    (effects (font (size 1 1) (thickness 0.15)))
    (tstamp 4242ea28-5897-41b5-a340-2c3f361e0d7c)
  )
  (fp_text user "DIN" (at 2.9 -1.8 unlocked) (layer "F.Fab")
    (effects (font (size 0.7 0.7) (thickness 0.15)))
    (tstamp 4e9af1a9-170e-4992-8b8a-24301ecf5a58)
  )
  (fp_text user "DOUT" (at -3.5 1.9 unlocked) (layer "F.Fab")
    (effects (font (size 0.7 0.7) (thickness 0.15)))
    (tstamp 93693df2-24f3-4ab9-8497-7c9c58e8881a)
  )
  (fp_text user "VCC" (at -3.5 -1.8 unlocked) (layer "F.Fab")
    (effects (font (size 0.7 0.7) (thickness 0.15)))
    (tstamp c98bba52-4f63-4062-aac6-e3003cce6fa5)
  )
  (fp_poly (pts
      (xy 2.2 -2)
      (xy 2.2 -1.4)
      (xy 2.8 -1.4)
    ) (layer "B.SilkS") (width 0.1) (fill solid) (tstamp 13b61113-2d89-41b2-bdbd-d2fcba03173a))
  (fp_poly (pts
      (xy 2.2 2)
      (xy 2.2 1.4)
      (xy 2.8 1.4)
    ) (layer "F.SilkS") (width 0.1) (fill solid) (tstamp 8e242f16-4501-4ee5-841e-c74df43a92cb))
  (fp_line (start -1.6 -1.4) (end 1.6 -1.4) (layer "Cmts.User") (width 0.12) (tstamp 167ea980-b724-480d-a776-d913842b7b49))
  (fp_line (start 1.6 1.4) (end -1.6 1.4) (layer "Cmts.User") (width 0.12) (tstamp 2ef7c512-1bd5-4e41-9beb-38ba91ea16c2))
  (fp_line (start 1.6 -1.4) (end 1.6 1.4) (layer "Cmts.User") (width 0.12) (tstamp 531647fb-82a3-4270-b7e4-17930b95b467))
  (fp_line (start -1.6 1.4) (end -1.6 -1.4) (layer "Cmts.User") (width 0.12) (tstamp e1ce39ab-681f-4b88-83e6-1556421b839e))
  (fp_line (start 1.7 -1.5) (end 1.7 1.5) (layer "Edge.Cuts") (width 0.12) (tstamp 23eeb752-79a4-4f43-bc9d-18b0e9c8c8dd))
  (fp_line (start 1.7 1.5) (end -1.7 1.5) (layer "Edge.Cuts") (width 0.12) (tstamp 4c6faa8f-36b3-48f8-b1c7-2fee3c96a93d))
  (fp_line (start -1.7 -1.5) (end 1.7 -1.5) (layer "Edge.Cuts") (width 0.12) (tstamp 96e8ab83-1d4f-497e-98b5-46426c98efef))
  (fp_line (start -1.7 1.5) (end -1.7 -1.5) (layer "Edge.Cuts") (width 0.12) (tstamp fbe83982-7d27-4584-abc4-6b2e851fc137))
  (pad "1" smd rect (at -2.55 0.75) (size 1.7 0.82) (layers "F.Cu" "F.Paste" "F.Mask") (tstamp 85c0c4b5-de47-4d3f-8895-35f069b4920f))
  (pad "1" smd rect (at -2.55 -0.75 180) (size 1.7 0.82) (layers "B.Cu" "B.Paste" "B.Mask") (tstamp af7a749a-7d5a-456f-8a53-aa1ed27757ec))
  (pad "2" smd roundrect (at 2.55 0.75) (size 1.7 0.82) (layers "F.Cu" "F.Paste" "F.Mask") (roundrect_rratio 0.25) (tstamp 09d73c4a-3f33-4373-b495-c980c91113c2))
  (pad "2" smd roundrect (at 2.55 -0.75 180) (size 1.7 0.82) (layers "B.Cu" "B.Paste" "B.Mask") (roundrect_rratio 0.25) (tstamp f2aa06ae-f5e6-40ca-920d-9d24c4fa5650))
  (pad "3" smd rect (at 2.55 0.75 180) (size 1.7 0.82) (layers "B.Cu" "B.Paste" "B.Mask") (tstamp 30754d78-cdc9-4b14-ae4a-b72c42cd041a))
  (pad "3" smd rect (at 2.55 -0.75) (size 1.7 0.82) (layers "F.Cu" "F.Paste" "F.Mask") (tstamp 5c6491ed-86a6-46cb-b360-57098973ce46))
  (pad "4" smd rect (at -2.55 0.75 180) (size 1.7 0.82) (layers "B.Cu" "B.Paste" "B.Mask") (tstamp 5a1775b1-8149-4175-9995-3d9acdc9306c))
  (pad "4" smd rect (at -2.55 -0.75) (size 1.7 0.82) (layers "F.Cu" "F.Paste" "F.Mask") (tstamp 7bb25135-41cf-4481-b69c-1e9f605f76a1))
  (model "/Users/glebsabirzyanov/Projects/keyboards/footprints/Keebio-Parts.pretty/3dmodels/SK6812MINI-E v1.step"
    (offset (xyz 0 0 0.2))
    (scale (xyz 1 1 1))
    (rotate (xyz -90 0 0))
  )
)
